<?xml version="1.0" ?>
<sdf version="1.4">
  <world name="default">
    <include>
      <uri>model://sun</uri>
    </include>
    <include>
      <uri>model://test_01</uri>
      <pose> 0.0 0.0 0 0.0 0.0 0.0</pose>
    </include>
    <spherical_coordinates>
      <surface_model>EARTH_WGS84</surface_model>
      <latitude_deg>47.3667</latitude_deg>
      <longitude_deg>8.5500</longitude_deg>
      <elevation>500.0</elevation>
      <heading_deg>0</heading_deg>
    </spherical_coordinates>

    <!-- Only one ROS interface plugin is required per world, as any other plugin can connect a Gazebo
         topic to a ROS topic (or vise versa). -->
    <plugin name="ros_interface_plugin" filename="librotors_gazebo_ros_interface_plugin.so"/>

    <physics type='ode'>
      <ode>
        <solver>
          <type>quick</type>
          <iters>1000</iters>
          <sor>1.3</sor>
        </solver>
        <constraints>
          <cfm>0</cfm>
          <erp>0.2</erp>
          <contact_max_correcting_vel>100</contact_max_correcting_vel>
          <contact_surface_layer>0.001</contact_surface_layer>
        </constraints>
      </ode>
      <max_step_size>0.01</max_step_size>
      <real_time_factor>1</real_time_factor>
      <real_time_update_rate>100</real_time_update_rate>
      <gravity>0 0 -9.8</gravity>
    </physics>
    <!-- Laser Scans -->
    <plugin name='gazebo_octomap' filename='librotors_gazebo_octomap_plugin.so'>
      <octomapPubTopic>world/octomap</octomapPubTopic>
      <octomapServiceName>world/get_octomap</octomapServiceName>
    </plugin>
  </world>
</sdf>
